<?xml version="1.0" encoding="UTF-8" standalone="no"?>
<!-- Created with Inkscape (http://www.inkscape.org/) -->

<svg
   xmlns:dc="http://purl.org/dc/elements/1.1/"
   xmlns:cc="http://creativecommons.org/ns#"
   xmlns:rdf="http://www.w3.org/1999/02/22-rdf-syntax-ns#"
   xmlns:svg="http://www.w3.org/2000/svg"
   xmlns="http://www.w3.org/2000/svg"
   xmlns:sodipodi="http://sodipodi.sourceforge.net/DTD/sodipodi-0.dtd"
   xmlns:inkscape="http://www.inkscape.org/namespaces/inkscape"
   width="1080"
   height="1920"
   viewBox="0 0 285.74999 508.00002"
   version="1.1"
   id="svg8"
   inkscape:version="0.92.4 5da689c313, 2019-01-14"
   sodipodi:docname="instagram-cerita.svg"
   style="enable-background:new"
   inkscape:export-filename="./ur.png"
   inkscape:export-xdpi="150"
   inkscape:export-ydpi="150">
  <defs
     id="defs2">
    <filter
       inkscape:collect="always"
       style="color-interpolation-filters:sRGB"
       id="filter1181"
       x="-0.075603818"
       width="1.1512076"
       y="-0.13606763"
       height="1.2721353">
      <feGaussianBlur
         inkscape:collect="always"
         stdDeviation="1.7135876"
         id="feGaussianBlur1183" />
    </filter>
    <clipPath
       clipPathUnits="userSpaceOnUse"
       id="clipPath1189">
      <path
         inkscape:connector-curvature="0"
         id="path1191"
         d="m 156.42198,469.85598 c 0,0 -0.77055,-0.5137 -5.30825,-0.42808 -4.53769,0.0856 -6.50688,-2.14042 -10.44525,0.25685 -3.93837,2.39727 -11.55827,5.05139 -16.09597,6.84935 -4.53769,1.79795 -5.30824,10.53087 -1.79795,17.03775 3.51029,6.50687 6.76373,8.39044 17.2946,9.58908 10.53088,1.19865 21.23298,1.96919 24.82889,-0.0856 3.5959,-2.05483 2.48289,-4.53768 2.48289,-4.53768 0,0 5.05139,0.25683 6.07879,-2.22605 1.0274,-2.48289 -0.59932,-3.93838 -5.05139,-4.19523 -4.45208,-0.25685 -10.18841,-0.25685 -10.18841,-0.25685 0,0 15.7535,-1.71233 18.83571,-2.5685 3.08221,-0.85617 4.70893,-4.19523 3.76714,-5.99318 -0.94178,-1.79796 -9.58909,-0.17124 -9.58909,-0.17124 0,0 3.68153,-0.42808 4.19523,-3.33905 0.5137,-2.91097 -3.68153,-3.16783 -6.50688,-3.25344 -2.82536,-0.0856 -5.99318,0.42808 -8.73292,0.0856 -2.73974,-0.34246 -3.76714,-0.17123 -4.36646,0.0856 -0.59932,0.25685 -0.85617,0.59932 -0.85617,0.59932 0,0 -1.62672,-0.85617 -3.76714,-0.77055 -2.14042,0.0856 -4.28084,0.59931 -5.47948,0.0856 -1.19863,-0.5137 -1.36986,-1.36987 -1.36986,-1.36987 0,0 3.85275,1.11302 6.84934,0 2.99659,-1.11301 6.33565,-2.39727 5.22263,-5.39386 z"
         style="fill:#ffffff;fill-opacity:1;stroke:none;stroke-width:0.26458332px;stroke-linecap:butt;stroke-linejoin:miter;stroke-opacity:1" />
    </clipPath>
    <filter
       inkscape:collect="always"
       style="color-interpolation-filters:sRGB"
       id="filter1913"
       x="-0.1011939"
       width="1.2023878"
       y="-0.10040916"
       height="1.2008183">
      <feGaussianBlur
         inkscape:collect="always"
         stdDeviation="12.769872"
         id="feGaussianBlur1915" />
    </filter>
    <clipPath
       clipPathUnits="userSpaceOnUse"
       id="clipPath2177">
      <path
         sodipodi:nodetypes="sscscscccscscsscs"
         inkscape:connector-curvature="0"
         id="path2179"
         d="m 147.4878,395.27299 c -13.4185,0.96859 -28.62606,12.95488 -33.99346,23.36718 -5.3674,10.41229 -5.87859,19.12987 -7.53993,21.18811 -3.45047,7.38546 -1.53338,11.25938 -0.12763,19.37128 1.40575,8.1119 2.42804,14.8923 3.83378,19.61415 1.40575,4.72185 4.08933,14.89204 15.5909,24.57789 8.35082,7.03249 15.01622,9.34026 20.341,10.07782 0.97537,0.20391 2.10546,0.33432 4.43866,0.33432 2.33319,0 3.46325,-0.13041 4.43864,-0.33432 5.32475,-0.73756 11.9897,-3.04538 20.34044,-10.07782 11.50157,-9.68585 14.1857,-19.85604 15.59145,-24.57789 1.40575,-4.72185 2.42804,-11.50225 3.83378,-19.61415 1.40575,-8.1119 3.3223,-11.98582 -0.12818,-19.37128 -1.66133,-2.05824 -2.17252,-10.77582 -7.53992,-21.18811 -5.3674,-10.4123 -20.57496,-22.39859 -33.99346,-23.36718 -0.8849,-0.0639 -1.73128,-0.0809 -2.78906,-0.0743 -1.05777,0.007 -1.66802,0.0289 -2.29701,0.0743 z"
         style="fill:#6698bb;fill-opacity:1;stroke:none;stroke-width:0.27181259px;stroke-linecap:butt;stroke-linejoin:miter;stroke-opacity:1" />
    </clipPath>
    <filter
       inkscape:collect="always"
       style="color-interpolation-filters:sRGB"
       id="filter2815"
       x="-0.17101757"
       width="1.3420351"
       y="-0.34192973"
       height="1.6838595">
      <feGaussianBlur
         inkscape:collect="always"
         stdDeviation="6.1040757"
         id="feGaussianBlur2817" />
    </filter>
    <filter
       inkscape:collect="always"
       style="color-interpolation-filters:sRGB"
       id="filter3170"
       x="-0.089582828"
       width="1.1791657"
       y="-0.13220976"
       height="1.2644195">
      <feGaussianBlur
         inkscape:collect="always"
         stdDeviation="27.312529"
         id="feGaussianBlur3172" />
    </filter>
    <filter
       inkscape:collect="always"
       style="color-interpolation-filters:sRGB"
       id="filter3623"
       x="-0.17148809"
       width="1.3429762"
       y="-0.20901252"
       height="1.418025">
      <feGaussianBlur
         inkscape:collect="always"
         stdDeviation="24.732482"
         id="feGaussianBlur3625" />
    </filter>
    <filter
       inkscape:collect="always"
       style="color-interpolation-filters:sRGB"
       id="filter4057"
       x="-0.13667069"
       width="1.2733414"
       y="-0.54328596"
       height="2.0865719">
      <feGaussianBlur
         inkscape:collect="always"
         stdDeviation="5.5712123"
         id="feGaussianBlur4059" />
    </filter>
    <filter
       inkscape:collect="always"
       style="color-interpolation-filters:sRGB"
       id="filter4567"
       x="-0.12086359"
       width="1.2417272"
       y="-0.42699994"
       height="1.8539999">
      <feGaussianBlur
         inkscape:collect="always"
         stdDeviation="5.3292969"
         id="feGaussianBlur4569" />
    </filter>
    <filter
       inkscape:collect="always"
       style="color-interpolation-filters:sRGB"
       id="filter4817"
       x="-0.14003479"
       width="1.2800696"
       y="-0.42943994"
       height="1.8588799">
      <feGaussianBlur
         inkscape:collect="always"
         stdDeviation="4.5497211"
         id="feGaussianBlur4819" />
    </filter>
    <filter
       inkscape:collect="always"
       style="color-interpolation-filters:sRGB"
       id="filter6127"
       x="-0.1939495"
       width="1.387899"
       y="-0.35479862"
       height="1.7095972">
      <feGaussianBlur
         inkscape:collect="always"
         stdDeviation="11.542928"
         id="feGaussianBlur6129" />
    </filter>
    <clipPath
       clipPathUnits="userSpaceOnUse"
       id="clipPath6270">
      <path
         sodipodi:nodetypes="sscccccccccccccscccsccccccscccccsccccccccccccccccc"
         inkscape:connector-curvature="0"
         id="path6272"
         d="m 142.8876,408.60547 c -25.51261,-0.60202 -47.471304,20.162 -54.199645,43.80285 -6.247984,21.95306 -6.837708,29.79748 -6.837708,29.79748 l 2.905975,7.26456 c 0,0 -0.968032,0.48466 -2.421006,4.84356 -1.452962,4.35891 -1.453436,15.49773 1.93681,27.12146 3.390258,11.62373 8.717937,17.92009 8.717937,17.92009 l -0.484204,12.10812 c 0,0 -3.874553,1.45324 -6.296163,8.23374 -2.421606,6.78054 -9.202141,11.62317 -9.202141,11.62317 0,0 -3.81e-4,-0.96816 -7.749533,0.96917 -7.749152,1.93728 -16.466713,6.78035 -16.466713,6.78035 0,0 -0.968836,1.9e-4 -11.623921,2.4218 -9.296638,2.11286 -28.163964,16.74902 -32.8276949,20.44989 1.4809385,-0.99173 4.8276509,-2.76802 12.0023939,-4.95161 11.139406,-3.39027 32.449061,1.4524 76.52236,20.82532 7.351703,3.23152 14.459543,5.73233 21.281153,7.58712 9.26419,3.71703 23.61743,7.56479 40.5803,5.55224 29.95631,-3.55412 34.44245,-5.19787 57.37338,-18.7866 13.70883,-8.12382 21.83287,-10.15414 38.08037,-4.06132 16.2475,6.09282 29.44901,-8.12342 29.44901,-8.12342 0,0 -10.66274,-2.03107 -16.75555,-5.58519 -6.09281,-3.55416 -23.86382,-5.07799 -23.86382,-5.07799 0,0 -5.07668,-3.5533 -12.69269,-8.63062 -7.61603,-5.07736 -19.29455,-7.10902 -19.29455,-7.10902 l -1.71616,-4.17856 c -0.0242,-0.96697 -0.0508,-1.93966 -0.0781,-2.92437 -0.48431,-17.43564 -8.71793,-22.27867 -8.71793,-22.27867 0,0 0.96817,-5.81206 1.93681,-11.62392 0.96864,-5.81186 -2.90599,-18.88849 -2.90599,-18.88849 0,0 1.45362,-9.20253 0.48497,-16.95168 -0.96863,-7.74916 -0.48431,-23.73155 0,-31.96501 -1.62356,-31.4073 -33.34716,-55.60306 -57.1379,-56.16445 z M 8.3395931,601.94171 c -0.8183476,0.54799 -1.0749008,0.86035 -1.0749008,0.86035 0,0 0.3934263,-0.31958 1.0749008,-0.86035 z M 122.48516,475.55989 c 0.27986,1.2e-4 0.56325,0.004 0.84868,0.0159 4.21816,0.16307 15.43023,3.43576 14.5888,9.67122 -0.34871,2.58416 -8.44812,8.37304 -17.58165,6.76123 -9.13352,-1.61178 -12.83082,-6.72 -12.65174,-9.04816 0.1735,-2.25538 6.12048,-7.40131 14.79591,-7.40016 z m 48.35092,-0.17908 c 8.86435,-0.002 14.94082,5.25679 15.1181,7.56129 0.18297,2.37886 -3.59483,7.5983 -12.92724,9.2452 -9.33241,1.6469 -17.60819,-4.26803 -17.9645,-6.90846 -0.85976,-6.37124 10.59736,-9.7152 14.90738,-9.88182 0.29166,-0.0115 0.58032,-0.0162 0.86626,-0.0162 z"
         style="fill:#000000;stroke:none;stroke-width:0.26458335px;stroke-linecap:butt;stroke-linejoin:miter;stroke-opacity:1" />
    </clipPath>
    <filter
       inkscape:collect="always"
       style="color-interpolation-filters:sRGB"
       id="filter7411"
       x="-0.42599704"
       width="1.8519941"
       y="-0.52813703"
       height="2.0562741">
      <feGaussianBlur
         inkscape:collect="always"
         stdDeviation="125.05378"
         id="feGaussianBlur7413" />
    </filter>
  </defs>
  <sodipodi:namedview
     id="base"
     pagecolor="#ffffff"
     bordercolor="#666666"
     borderopacity="1.0"
     inkscape:pageopacity="0.0"
     inkscape:pageshadow="2"
     inkscape:zoom="0.44518153"
     inkscape:cx="503.46781"
     inkscape:cy="960.00002"
     inkscape:document-units="px"
     inkscape:current-layer="layer2"
     showgrid="false"
     units="px"
     borderlayer="true"
     inkscape:pagecheckerboard="true"
     inkscape:window-width="1348"
     inkscape:window-height="726"
     inkscape:window-x="8"
     inkscape:window-y="32"
     inkscape:window-maximized="1"
     inkscape:snap-global="false">
    <inkscape:grid
       type="xygrid"
       id="grid815"
       dotted="false"
       originx="0"
       originy="-2.4000002e-05" />
  </sodipodi:namedview>
  <metadata
     id="metadata5">
    <rdf:RDF>
      <cc:Work
         rdf:about="">
        <dc:format>image/svg+xml</dc:format>
        <dc:type
           rdf:resource="http://purl.org/dc/dcmitype/StillImage" />
        <dc:title />
        <dc:date />
        <dc:creator>
          <cc:Agent>
            <dc:title />
          </cc:Agent>
        </dc:creator>
        <dc:subject>
          <rdf:Bag />
        </dc:subject>
        <dc:description />
        <cc:license
           rdf:resource="" />
      </cc:Work>
    </rdf:RDF>
  </metadata>
  <g
     inkscape:label="background"
     inkscape:groupmode="layer"
     id="layer1"
     transform="translate(0,211.00003)"
     sodipodi:insensitive="true">
    <path
       style="opacity:1;vector-effect:none;fill:#ffffff;fill-opacity:1;fill-rule:nonzero;stroke:none;stroke-width:0.4665426;stroke-linecap:butt;stroke-linejoin:miter;stroke-miterlimit:4;stroke-dasharray:none;stroke-dashoffset:0;stroke-opacity:1;paint-order:stroke fill markers"
       d="m 0,-211.00003 h 285.75 v 508 H 0 Z"
       id="rect818"
       inkscape:connector-curvature="0" />
  </g>
  <g
     inkscape:groupmode="layer"
     id="layer2"
     inkscape:label="artwork"
     transform="translate(0,-232.83331)">
    <rect
       style="opacity:1;vector-effect:none;fill:#d5e3ed;fill-opacity:1;stroke:none;stroke-width:0.09544213;stroke-linecap:butt;stroke-linejoin:miter;stroke-miterlimit:4;stroke-dasharray:none;stroke-dashoffset:0;stroke-opacity:1"
       id="rect21"
       width="285.75"
       height="508"
       x="3.1249982e-07"
       y="232.83331" />
    <path
       inkscape:connector-curvature="0"
       id="path6540"
       transform="matrix(0.26458333,0,0,0.26458333,0.05296482,232.83331)"
       d="m 530.23438,586.16797 c -63.73708,0.15348 -118.24437,52.37338 -135.12891,111.69922 -15.92795,55.96486 -17.43164,75.96289 -17.43164,75.96289 l 7.4082,18.51953 c 0,0 -2.46782,1.23554 -6.17187,12.34766 -3.70403,11.11215 -3.70524,39.50829 4.9375,69.14062 8.64279,29.63233 22.22461,45.68359 22.22461,45.68359 l -1.23438,30.86719 c 0,0 -9.87738,3.70472 -16.05078,20.99024 -6.17341,17.28559 -23.45898,29.63089 -23.45899,29.63089 0,0 -9.7e-4,-2.46818 -19.75585,2.4707 -19.75488,4.9387 -41.97852,17.2851 -41.97852,17.2851 0,0 -2.46985,4e-4 -29.63281,6.1739 -23.69988,5.3863 -71.79827,42.6982 -83.6875,52.1328 3.77535,-2.5282 12.30711,-7.0565 30.59765,-12.6231 28.39764,-8.6428 82.72225,3.7026 195.07813,53.0899 18.74166,8.2381 36.86167,14.6134 54.25195,19.3418 23.61717,9.4758 60.20778,19.2849 103.45117,14.1543 76.36751,-9.0605 87.804,-13.2509 146.26172,-47.8926 34.94786,-20.71 55.65847,-25.886 97.07813,-10.3535 41.41969,15.5323 75.07422,-20.709 75.07422,-20.709 0,0 -27.18246,-5.1778 -42.71485,-14.2383 -15.53238,-9.0606 -60.83593,-12.9453 -60.83594,-12.9453 0,0 -12.94191,-9.0584 -32.35742,-22.002 -19.41547,-12.9437 -49.1875,-18.123 -49.1875,-18.123 l -4.375,-10.65236 c -0.0616,-2.46512 -0.12967,-4.94479 -0.19922,-7.45508 -1.23465,-44.4486 -22.22462,-56.79492 -22.2246,-56.79492 0,0 2.46818,-14.81665 4.9375,-29.63281 2.46934,-14.81613 -7.40821,-48.15235 -7.40821,-48.15235 0,0 3.70572,-23.45997 1.23633,-43.21484 -0.35092,-2.80739 -0.62009,-6.07311 -0.83203,-9.61133 0.0138,-0.0795 0.0253,-0.14893 0.0391,-0.22851 4.50587,-26.00115 10.60313,-38.72445 0.29688,-61.91016 0.16029,-3.5316 0.32614,-6.84903 0.49609,-9.73828 -4.13892,-80.06649 -85.01245,-141.74853 -145.66211,-143.17969 -1.01624,-0.024 -2.02933,-0.0356 -3.04101,-0.0332 z M 190.27344,1079.0723 c -2.08621,1.397 -2.74024,2.1933 -2.74024,2.1933 0,0 1.00296,-0.8147 2.74024,-2.1933 z"
       style="opacity:0.39599998;fill:#ffffff;stroke:none;stroke-width:0.67450118px;stroke-linecap:butt;stroke-linejoin:miter;stroke-opacity:1;filter:url(#filter7411)" />
    <g
       transform="matrix(0.67450114,0,0,0.67450114,44.771086,112.32749)"
       id="g6218">
      <g
         id="g6190">
        <path
           transform="matrix(0.39226521,0,0,0.39226521,-66.298059,178.65918)"
           sodipodi:nodetypes="sscccccccccccccscccsccccccscccccsccccccccccccccccc"
           inkscape:connector-curvature="0"
           id="path2903"
           d="m 533.27609,586.20108 c -65.03918,-1.53473 -121.01838,51.39889 -138.17091,111.66641 -15.92797,55.96486 -17.43135,75.96259 -17.43135,75.96259 l 7.4082,18.51953 c 0,0 -2.46781,1.23553 -6.17187,12.34766 -3.70403,11.11215 -3.70524,39.5083 4.9375,69.14062 8.64278,29.63233 22.22461,45.68359 22.22461,45.68359 l -1.23438,30.86719 c 0,0 -9.87738,3.70474 -16.05078,20.99024 -6.1734,17.2856 -23.45899,29.63089 -23.45899,29.63089 0,0 -9.7e-4,-2.46813 -19.75585,2.4707 -19.75488,4.9387 -41.97852,17.2851 -41.97852,17.2851 0,0 -2.46985,5e-4 -29.63281,6.1739 -23.69988,5.3863 -71.79827,42.6982 -83.6875,52.1328 3.77535,-2.5282 12.30711,-7.0565 30.59765,-12.6231 28.39764,-8.6428 82.72225,3.7026 195.07813,53.0899 18.74166,8.2381 36.86165,14.6134 54.25195,19.3418 23.61715,9.4758 60.20781,19.2849 103.45117,14.1543 76.36751,-9.0605 87.80399,-13.2509 146.26172,-47.8926 34.94786,-20.71 55.65845,-25.8859 97.07813,-10.3535 41.41968,15.5324 75.07422,-20.709 75.07422,-20.709 0,0 -27.18248,-5.1778 -42.71485,-14.2383 -15.53238,-9.0606 -60.83594,-12.9453 -60.83594,-12.9453 0,0 -12.94194,-9.0584 -32.35742,-22.002 -19.41549,-12.9437 -49.1875,-18.123 -49.1875,-18.123 l -4.375,-10.65236 c -0.0617,-2.4651 -0.12949,-4.94478 -0.19922,-7.45508 -1.23465,-44.4486 -22.2246,-56.79492 -22.2246,-56.79492 0,0 2.46817,-14.81667 4.9375,-29.63281 2.46936,-14.81615 -7.40821,-48.15235 -7.40821,-48.15235 0,0 3.70571,-23.45996 1.23633,-43.21484 -2.46932,-19.7549 -1.23465,-60.49873 0,-81.48828 C 674.79857,649.31437 593.92573,587.63223 533.27609,586.20108 Z M 190.27344,1079.0723 c -2.08621,1.397 -2.74024,2.1933 -2.74024,2.1933 0,0 1.00296,-0.8147 2.74024,-2.1933 z m 290.9908,-322.1846 c 0.71344,3e-4 1.43589,0.0111 2.16354,0.0404 10.75335,0.41572 39.33623,8.75878 37.19117,24.65481 -0.88896,6.58779 -21.53675,21.34534 -44.82082,17.23637 -23.28405,-4.10891 -32.70956,-17.13126 -32.25302,-23.06644 0.4423,-5.74964 15.6029,-18.86812 37.71913,-18.86519 z m 123.2608,-0.45654 c 22.59784,-0.004 38.08857,13.40112 38.5405,19.27598 0.46645,6.06442 -9.16428,19.37031 -32.95536,23.56873 -23.79106,4.19844 -44.88848,-10.88046 -45.79681,-17.6117 -2.19178,-16.24217 27.01581,-24.7669 38.00332,-25.19168 0.74351,-0.0294 1.47939,-0.0412 2.20835,-0.0413 z"
           style="fill:#252525;fill-opacity:1;stroke:none;stroke-width:0.67450118px;stroke-linecap:butt;stroke-linejoin:miter;stroke-opacity:1" />
        <g
           style="opacity:0.744"
           clip-path="url(#clipPath6270)"
           id="g6156">
          <path
             inkscape:connector-curvature="0"
             id="path3180"
             transform="matrix(0.26458333,0,0,0.26458333,-3.989786e-7,232.83331)"
             d="m 765.15234,1034.0332 c 0,0 -26.54313,93.3563 -38.4414,127.2207 -11.89832,33.8644 -14.64226,66.8143 -11.89649,92.4414 2.74578,25.6271 -3.66211,50.3379 -3.66211,50.3379 0,0 19.22007,-35.6947 30.20313,-79.627 10.98306,-43.9321 6.40788,-60.4057 20.13672,-83.2871 13.72879,-22.8813 24.71169,-36.6103 25.62695,-44.8476 0.91526,-8.2373 -21.9668,-62.2383 -21.9668,-62.2383 z m -1.83007,125.3906 -5.49219,17.3907 c 0,0 -12.81238,78.7106 -17.38867,125.3886 -4.57625,46.6781 -3.66247,55.8315 -22.88282,78.7129 -19.22034,22.8813 -34.77834,31.1171 -43.01562,56.7442 -8.23729,25.6271 -10.06836,36.6113 -10.06836,36.6113 0,0 28.37292,-51.2535 70.47461,-64.9824 42.10168,-13.7288 69.55959,-86.0359 77.79687,-129.0528 8.23729,-43.017 -23.79763,-102.5072 -24.71289,-108.914 -0.91526,-6.4067 -24.71093,-11.8985 -24.71093,-11.8985 z m -418.27149,152.8477 c 0,0 -64.06776,22.8814 -145.52539,11.8984 -81.45762,-10.9831 -116.237089,13.7284 -117.152343,18.3047 0,0 12.812997,-3.6612 43.931643,-2.7461 31.11864,0.9153 71.39108,10.9828 140.03515,13.7285 68.64409,2.7458 78.71094,-41.1855 78.71094,-41.1855 z"
             style="opacity:0.25700001;fill:#babdb6;stroke:none;stroke-width:1px;stroke-linecap:butt;stroke-linejoin:miter;stroke-opacity:1;filter:url(#filter3170)" />
          <path
             sodipodi:nodetypes="cscssc"
             inkscape:connector-curvature="0"
             id="path3176"
             transform="matrix(0.26458333,0,0,0.26458333,-3.989786e-7,232.83331)"
             d="m 703.83008,1241.7969 c 0,0 -101.59195,149.1858 -167.49024,194.0332 -65.89833,44.8474 -173.89831,26.5425 -178.47461,28.373 0,0 -11.31056,44.0426 152.84571,61.3223 52.16952,5.4916 140.94981,-75.9668 167.49218,-129.9668 26.54238,-54 25.62696,-153.7617 25.62696,-153.7617 z"
             style="opacity:0.244;fill:#babdb6;stroke:none;stroke-width:1px;stroke-linecap:butt;stroke-linejoin:miter;stroke-opacity:1;filter:url(#filter3623)" />
          <path
             style="opacity:0.43600003;fill:#eeeeec;fill-opacity:1;stroke:#000000;stroke-width:0.26458332px;stroke-linecap:butt;stroke-linejoin:miter;stroke-opacity:1;filter:url(#filter4057)"
             d="m 89.357413,549.52612 c 0,0 18.404237,15.9826 35.839827,19.61501 17.4356,3.63244 35.35551,-0.48432 41.16738,-4.11673 5.81186,-3.63241 13.80317,-12.59237 13.80317,-12.59237 0,0 -10.17076,17.91992 -29.30148,20.34154 -19.13072,2.4216 -30.51229,2.4216 -45.04195,-6.78053 -14.529657,-9.2021 -23.489615,-14.52965 -23.489615,-14.52965 z"
             id="path3627"
             inkscape:connector-curvature="0" />
          <path
             style="opacity:0.22000002;fill:#ffffff;stroke:#000000;stroke-width:0.26458332px;stroke-linecap:butt;stroke-linejoin:miter;stroke-opacity:1;filter:url(#filter4567)"
             d="m 69.984533,558.72822 c 0,0 27.185572,14.13637 48.383947,23.3354 21.19839,9.19903 50.17559,-5.89981 50.17559,-5.89981 0,0 -17.93567,17.16822 -43.78289,11.29364 -25.847213,-5.8746 -55.745292,-21.22223 -58.893384,-23.64386 -3.148094,-2.4216 -3.148094,-4.11673 -3.148094,-4.11673 z"
             id="path4061"
             inkscape:connector-curvature="0"
             sodipodi:nodetypes="cscsccc" />
          <path
             style="opacity:0.18999999;fill:#ffffff;stroke:none;stroke-width:0.26458332px;stroke-linecap:butt;stroke-linejoin:miter;stroke-opacity:1;filter:url(#filter4817)"
             d="m 61.751058,612.48798 c 0,0 25.426906,-5.0854 44.073302,-7.26485 18.6464,-2.17945 33.90254,-8.47564 33.90254,-8.47564 0,0 -17.19343,10.65509 -42.862496,15.25614 -25.669067,4.60108 -30.512286,10.17077 -30.512286,10.17077 z"
             id="path4571"
             inkscape:connector-curvature="0" />
          <path
             style="opacity:0.894;fill:#ffffff;stroke:none;stroke-width:0.26458332px;stroke-linecap:butt;stroke-linejoin:miter;stroke-opacity:1;filter:url(#filter6127)"
             d="m 79.794901,458.29771 c 0,0 9.589087,-24.65765 28.767259,-39.38375 19.17818,-14.7261 39.04128,-12.67129 55.13725,-7.87675 16.09597,4.79454 31.16454,24.65765 34.93168,38.01388 3.76714,13.35623 6.16441,19.86311 6.16441,19.86311 0,0 40.41115,-15.7535 -0.68494,-43.49336 -41.09608,-27.73986 -48.2879,-38.69882 -70.54828,-33.21934 -22.26038,5.47948 -43.835823,8.90415 -49.315302,18.49324 -5.479478,9.58909 -4.452077,47.60297 -4.452077,47.60297 z"
             id="path4821"
             inkscape:connector-curvature="0" />
          <path
             inkscape:connector-curvature="0"
             id="path6230"
             transform="matrix(0.26458333,0,0,0.26458333,46.203825,254.15815)"
             d="m 765.15234,1034.0332 c 0,0 -26.54313,93.3563 -38.4414,127.2207 -11.89832,33.8644 -14.64226,66.8143 -11.89649,92.4414 2.74578,25.6271 -3.66211,50.3379 -3.66211,50.3379 0,0 19.22007,-35.6947 30.20313,-79.627 10.98306,-43.9321 6.40788,-60.4057 20.13672,-83.2871 13.72879,-22.8813 24.71169,-36.6103 25.62695,-44.8476 0.91526,-8.2373 -21.9668,-62.2383 -21.9668,-62.2383 z"
             style="opacity:0.25700001;fill:#babdb6;stroke:none;stroke-width:1px;stroke-linecap:butt;stroke-linejoin:miter;stroke-opacity:1;filter:url(#filter3170)" />
          <path
             sodipodi:nodetypes="ccccsccscc"
             inkscape:connector-curvature="0"
             id="path6228"
             transform="matrix(0.26458333,0,0,0.26458333,30.971795,259.74323)"
             d="m 763.32227,1159.4238 -5.49219,17.3907 c 0,0 -12.81238,78.7106 -17.38867,125.3886 -4.57625,46.6781 -3.66247,55.8315 -22.88282,78.7129 -19.22034,22.8813 -34.77834,31.1171 -43.01562,56.7442 -8.23729,25.6271 -10.06836,36.6113 -10.06836,36.6113 0,0 28.37292,-51.2535 70.47461,-64.9824 42.10168,-13.7288 122.34316,-22.6956 130.58044,-65.7125 8.23729,-43.017 -76.5812,-165.8475 -77.49646,-172.2543 -0.91526,-6.4067 -24.71093,-11.8985 -24.71093,-11.8985 z"
             style="opacity:0.25700001;fill:#babdb6;stroke:none;stroke-width:1px;stroke-linecap:butt;stroke-linejoin:miter;stroke-opacity:1;filter:url(#filter3170)" />
        </g>
      </g>
      <g
         id="g6180">
        <g
           transform="matrix(1.2858406,0,0,1.2858406,-50.040762,-97.581882)"
           id="g2207">
          <path
             style="fill:#85adc9;fill-opacity:1;stroke:none;stroke-width:1.02732313px;stroke-linecap:butt;stroke-linejoin:miter;stroke-opacity:1"
             d="m 566.11523,613.66406 c -3.99787,0.0265 -6.30435,0.10966 -8.68164,0.28125 -50.71559,3.66082 -108.19228,48.96283 -128.47851,88.31641 -20.28624,39.35354 -22.21897,72.30286 -28.49805,80.08203 -13.04115,27.91355 -5.79549,42.55374 -0.48242,73.21289 5.31307,30.65915 9.1772,56.28645 14.49023,74.13281 5.31307,17.84637 15.45528,56.28461 58.92578,92.89255 31.56216,26.5795 56.75571,35.3022 76.88086,38.0899 3.68644,0.7706 7.957,1.2636 16.7754,1.2636 8.81835,0 13.08887,-0.493 16.77539,-1.2636 20.12503,-2.7877 45.3151,-11.5106 76.87695,-38.0899 43.4705,-36.60794 53.61662,-75.04618 58.92969,-92.89255 5.31307,-17.84636 9.17524,-43.47366 14.48828,-74.13281 5.31307,-30.65915 12.55681,-45.29934 -0.48438,-73.21289 -6.27904,-7.77917 -8.20986,-40.72849 -28.49609,-80.08203 -20.28624,-39.35358 -77.76488,-84.65559 -128.48047,-88.31641 -3.3445,-0.24151 -6.54311,-0.30619 -10.54102,-0.28125 z m -58.8789,194.1543 c 0.71511,1.3e-4 1.43861,0.0128 2.16797,0.041 10.77872,0.41672 39.42943,8.77934 37.27929,24.71289 -0.89106,6.60332 -21.58678,21.396 -44.92578,17.27734 -23.33896,-4.11863 -32.7877,-17.17193 -32.33008,-23.12109 0.44333,-5.76322 15.64019,-18.91417 37.8086,-18.91016 z m 141.85351,0 c 22.16841,-0.004 37.36527,13.14694 37.8086,18.91016 0.45762,5.94916 -8.99112,19.00246 -32.33008,23.12109 -23.339,4.11866 -44.03472,-10.67402 -44.92578,-17.27734 -2.15014,-15.93355 26.50253,-24.29617 37.28125,-24.71289 0.72936,-0.0282 1.4509,-0.0409 2.16601,-0.041 z"
             transform="matrix(0.26458333,0,0,0.26458333,0,232.83331)"
             id="path1193"
             inkscape:connector-curvature="0" />
          <g
             id="g2173"
             clip-path="url(#clipPath2177)">
            <path
               inkscape:connector-curvature="0"
               id="path1200"
               transform="matrix(0.26458333,0,0,0.26458333,0,232.83331)"
               d="m 516.77539,601.28516 c -9.90998,0.0404 -16.66486,0.88954 -19.0918,2.3457 -9.70771,5.82463 -52.42187,62.12891 -52.42187,62.12891 0,0 -29.76985,40.12509 10.35547,47.24414 40.12531,7.11896 84.78079,-45.3021 163.08984,-9.70703 78.30909,35.59502 82.19236,82.8398 86.72266,110.02148 4.53025,27.18164 -12.29701,36.88881 -10.35547,53.06836 1.94154,16.17955 14.88476,40.125 14.88476,40.125 0,0 0.64762,-36.88863 3.23633,-64.07031 2.58875,-27.18165 11.64971,-38.18432 21.35742,-55.65821 9.70776,-17.47392 -1.94259,-132.02412 -75.07421,-158.55859 -54.8487,-19.90086 -112.97318,-27.0608 -142.70313,-26.93945 z m 62.44922,209.67187 c -1.87315,-0.0186 -4.01148,0.72315 -6.46875,2.36133 1.29437,4.53025 -0.64604,49.83244 -6.4707,62.12891 -5.82463,12.29646 -18.76953,27.82812 -18.76954,27.82812 0,0 25.24065,-8.41252 46.59766,-2.58789 21.35702,5.82467 31.71289,5.17773 31.71289,5.17773 0,0 -23.94558,-9.70743 -29.12305,-40.125 -4.44938,-26.14012 -6.03149,-54.66956 -17.47851,-54.7832 z"
               style="fill:#96c8eb;fill-opacity:1;stroke:none;stroke-width:0.99999994px;stroke-linecap:butt;stroke-linejoin:miter;stroke-opacity:1;filter:url(#filter1913)" />
            <path
               inkscape:connector-curvature="0"
               id="path1917"
               d="m 119.0758,401.58516 c 0,0 -1.71234,8.39045 22.08915,5.13701 23.80148,-3.25344 32.70563,-2.39727 44.69199,14.89733 11.98636,17.29461 18.15078,5.13702 18.83571,3.59591 0.68494,-1.5411 -17.8083,-34.41797 -30.4796,-36.81524 -12.67129,-2.39727 -46.40433,5.65071 -47.7742,7.02058 -1.36987,1.36987 -7.36305,6.16441 -7.36305,6.16441 z"
               style="opacity:0.53699999;fill:#ffffff;stroke:none;stroke-width:0.26458332px;stroke-linecap:butt;stroke-linejoin:miter;stroke-opacity:1;filter:url(#filter2815)" />
          </g>
        </g>
        <path
           inkscape:connector-curvature="0"
           id="path27"
           d="m 141.84545,489.7343 c 0,0 -5.06413,16.29327 -19.92624,15.85291 -14.86209,-0.44036 -17.39415,-15.74282 -16.8437,-24.21972 0.55045,-8.47689 6.82555,-14.752 12.99058,-15.52263 6.16501,-0.77063 10.89886,0.9908 10.89886,0.9908 0,0 -8.80717,-6.93564 -18.49505,-2.86233 -9.68789,4.07333 -14.641921,14.53184 -11.119052,30.38474 3.522872,15.85291 8.366812,21.2473 22.128022,19.26568 13.76119,-1.98161 20.36658,-17.17398 20.36658,-23.88945 z"
           style="opacity:1;vector-effect:none;fill:#ffffff;fill-opacity:1;stroke:none;stroke-width:0.12272337;stroke-linecap:butt;stroke-linejoin:miter;stroke-miterlimit:4;stroke-dasharray:none;stroke-dashoffset:0;stroke-opacity:1" />
        <path
           transform="matrix(1.1469285,0.58132704,-0.58132704,1.1469285,230.20038,-125.93757)"
           inkscape:transform-center-y="0.46256636"
           inkscape:transform-center-x="-0.47513242"
           d="m 154.66682,435.41378 1.78023,6.84584 7.44399,-0.14405 -5.96065,3.80858 2.43732,7.03514 -5.46412,-4.492 -5.93765,4.492 2.58365,-6.58479 -6.10699,-4.25893 7.0609,0.42238 z"
           inkscape:randomized="0"
           inkscape:rounded="0"
           inkscape:flatsided="false"
           sodipodi:arg2="-1.0129403"
           sodipodi:arg1="-1.5707963"
           sodipodi:r2="3.362932"
           sodipodi:r1="9.6989193"
           sodipodi:cy="445.1127"
           sodipodi:cx="154.66682"
           sodipodi:sides="5"
           id="path25"
           style="opacity:1;vector-effect:none;fill:#ffffff;fill-opacity:1;stroke:none;stroke-width:0.09544213;stroke-linecap:butt;stroke-linejoin:miter;stroke-miterlimit:4;stroke-dasharray:none;stroke-dashoffset:0;stroke-opacity:1"
           sodipodi:type="star" />
        <g
           transform="matrix(1.1897928,0,0,1.1897928,-35.553487,-50.1979)"
           id="g2195">
          <path
             style="fill:#932d2d;fill-opacity:1;stroke:none;stroke-width:0.26458332px;stroke-linecap:butt;stroke-linejoin:miter;stroke-opacity:1"
             d="m 156.42198,469.85598 c 0,0 -0.77055,-0.5137 -5.30825,-0.42808 -4.53769,0.0856 -6.50688,-2.14042 -10.44525,0.25685 -3.93837,2.39727 -11.55827,5.05139 -16.09597,6.84935 -4.53769,1.79795 -5.30824,10.53087 -1.79795,17.03775 3.51029,6.50687 6.76373,8.39044 17.2946,9.58908 10.53088,1.19864 21.23298,1.96919 24.82889,-0.0856 3.5959,-2.05481 2.48289,-4.53768 2.48289,-4.53768 0,0 5.05139,0.25685 6.07879,-2.22604 1.0274,-2.48289 -0.59932,-3.93838 -5.05139,-4.19523 -4.45208,-0.25685 -10.18841,-0.25685 -10.18841,-0.25685 0,0 15.7535,-1.71233 18.83571,-2.5685 3.08221,-0.85617 4.70893,-4.19523 3.76714,-5.99318 -0.94178,-1.79796 -9.58909,-0.17124 -9.58909,-0.17124 0,0 3.68153,-0.42808 4.19523,-3.33905 0.5137,-2.91097 -3.68153,-3.16783 -6.50688,-3.25344 -2.82536,-0.0856 -5.99318,0.42808 -8.73292,0.0856 -2.73974,-0.34246 -3.76714,-0.17123 -4.36646,0.0856 -0.59932,0.25685 -0.85617,0.59932 -0.85617,0.59932 0,0 -1.62672,-0.85617 -3.76714,-0.77055 -2.14042,0.0856 -4.28084,0.59931 -5.47948,0.0856 -1.19863,-0.5137 -1.36986,-1.36987 -1.36986,-1.36987 0,0 3.85275,1.11302 6.84934,0 2.99659,-1.11301 6.33565,-2.39727 5.22263,-5.39386 z"
             id="path45"
             inkscape:connector-curvature="0" />
          <path
             style="fill:#c6463d;fill-opacity:1;stroke:none;stroke-width:0.26458332px;stroke-linecap:butt;stroke-linejoin:miter;stroke-opacity:1;filter:url(#filter1181)"
             d="m 119.26427,479.78754 c 0,0 8.21921,-3.16783 11.21581,-4.28084 2.99658,-1.11302 11.04457,2.65412 13.61307,2.99658 2.56851,0.34247 4.36646,1.02741 4.36646,1.02741 0,0 -7.6199,1.5411 -12.15759,2.82535 -4.53769,1.28425 -7.70552,2.73974 -7.70552,2.73974 0,0 4.45208,-0.25685 10.44526,0.0856 5.99318,0.34247 12.84253,-1.54111 15.2398,-1.79796 2.39727,-0.25685 8.47607,-0.25685 10.53087,-0.42808 2.0548,-0.17123 8.47607,-0.5137 8.47607,-0.5137 0,0 -2.05481,1.0274 -2.39727,0.94178 -0.34247,-0.0856 -17.55146,1.96919 -17.55146,1.96919 0,0 -4.45207,2.05481 -1.0274,3.33906 3.42467,1.28425 8.98977,2.99659 9.33224,2.99659 0,0 -1.19864,0.85619 -2.82536,0.59934 -1.62672,-0.25685 -5.73633,-1.11302 -5.73633,-1.11302 l -0.0856,2.99659 c 0,0 -4.79455,-0.59932 -5.65071,-0.68493 -0.85617,-0.0856 -8.56169,-0.85617 -10.95896,-0.25685 -2.39727,0.59931 -7.02058,3.42467 -7.02058,3.42467 0,0 8.30483,3.42467 11.38704,3.76714 3.08221,0.34247 9.07538,-0.77055 10.95896,0.17123 1.88357,0.94179 4.96577,4.5377 4.96577,4.5377 0,0 -14.38363,1.28425 -20.46242,-0.77055 -6.0788,-2.05481 -13.95555,-7.02059 -15.83912,-10.87334 -1.88357,-3.85276 -1.62672,-11.90075 -1.11302,-13.6987 z"
             id="path62"
             inkscape:connector-curvature="0"
             clip-path="url(#clipPath1189)" />
          <path
             inkscape:connector-curvature="0"
             style="fill:#e6c6c5;fill-opacity:1;stroke:none;stroke-width:0.99999994px;stroke-linecap:butt;stroke-linejoin:miter;stroke-opacity:1"
             d="m 555.89062,892.44531 c 1.67023,4.24441 4.1581,9.12471 7.15821,10.1836 5.50106,1.94154 17.15021,3.88356 28.15234,-6.79493 0,0 -2.91214,-1.94274 -20.0625,-1.61914 -6.04878,0.11411 -10.86196,-0.85997 -15.24805,-1.76953 z m 86.49024,28.78711 0.27148,25.4043 4.5293,-0.64649 5.41406,-1.42968 c 4.13716,-1.57736 9.31365,-4.78773 10.44336,-11.18946 1.71431,-9.71439 -10.43731,-11.60569 -20.6582,-12.13867 z m 28.01172,22.21485 c -1.55368,0.0212 -3.15882,0.10317 -4.76563,0.20898 v 23.69141 l 8.62891,-0.22071 c 8.27327,-4.8969 12.16802,-14.7629 9.16797,-20.49023 -1.33481,-2.54829 -6.76483,-3.27477 -13.03125,-3.18945 z m -33.58399,36.54296 -0.28125,24.21287 c 5.79341,-0.2646 16.29537,-1.6775 19.06836,-8.37888 3.85868,-9.32517 -2.19953,-14.81275 -18.78711,-15.83399 z m -16.16015,20.03907 c -7.44261,-0.32353 -5.82422,7.4429 -5.82422,13.2676 0,3.3906 -0.0978,7.6236 -0.18945,11.0566 3.49004,-0.7359 6.40194,-1.7099 8.60156,-2.9668 13.5908,-7.7662 9.38476,-17.1504 9.38476,-17.1504 0,0 -4.53004,-3.8834 -11.97265,-4.207 z"
             transform="matrix(0.26458333,0,0,0.26458333,0,232.83331)"
             id="path47" />
          <path
             sodipodi:type="star"
             style="opacity:1;vector-effect:none;fill:#e2c163;fill-opacity:1;stroke:none;stroke-width:0.09544212;stroke-linecap:butt;stroke-linejoin:miter;stroke-miterlimit:4;stroke-dasharray:none;stroke-dashoffset:0;stroke-opacity:1"
             id="path52"
             sodipodi:sides="5"
             sodipodi:cx="149.82947"
             sodipodi:cy="488.89041"
             sodipodi:r1="6.3408513"
             sodipodi:r2="2.1985824"
             sodipodi:arg1="-1.5707963"
             sodipodi:arg2="-0.9424778"
             inkscape:flatsided="false"
             inkscape:rounded="0"
             inkscape:randomized="0"
             d="m 149.82947,482.54956 1.29229,4.56216 4.73822,-0.18074 -3.93954,2.63883 1.63609,4.45046 -3.72706,-2.93128 -3.72706,2.93128 1.63608,-4.45046 -3.93953,-2.63883 4.73821,0.18074 z"
             inkscape:transform-center-x="2.2140606e-06"
             inkscape:transform-center-y="-0.60550119" />
          <path
             inkscape:transform-center-y="-0.19740077"
             d="m 159.76102,478.43277 0.4213,1.4873 1.54469,-0.0589 -1.28432,0.86028 0.53338,1.45088 -1.21505,-0.95562 -1.21505,0.95562 0.53337,-1.45088 -1.28432,-0.86028 1.5447,0.0589 z"
             inkscape:randomized="0"
             inkscape:rounded="0"
             inkscape:flatsided="false"
             sodipodi:arg2="-0.9424778"
             sodipodi:arg1="-1.5707963"
             sodipodi:r2="0.71675545"
             sodipodi:r1="2.067168"
             sodipodi:cy="480.49994"
             sodipodi:cx="159.76102"
             sodipodi:sides="5"
             id="path54"
             style="opacity:1;vector-effect:none;fill:#e2c163;fill-opacity:1;stroke:none;stroke-width:0.03111489;stroke-linecap:butt;stroke-linejoin:miter;stroke-miterlimit:4;stroke-dasharray:none;stroke-dashoffset:0;stroke-opacity:1"
             sodipodi:type="star" />
          <path
             sodipodi:type="star"
             style="opacity:1;vector-effect:none;fill:#e2c163;fill-opacity:1;stroke:none;stroke-width:0.03111489;stroke-linecap:butt;stroke-linejoin:miter;stroke-miterlimit:4;stroke-dasharray:none;stroke-dashoffset:0;stroke-opacity:1"
             id="path56"
             sodipodi:sides="5"
             sodipodi:cx="164.81241"
             sodipodi:cy="486.4075"
             sodipodi:r1="2.067168"
             sodipodi:r2="0.71675545"
             sodipodi:arg1="-1.5707963"
             sodipodi:arg2="-0.9424778"
             inkscape:flatsided="false"
             inkscape:rounded="0"
             inkscape:randomized="0"
             d="m 164.81241,484.34033 0.4213,1.4873 1.54469,-0.0589 -1.28432,0.86028 0.53338,1.45089 -1.21505,-0.95562 -1.21505,0.95562 0.53337,-1.45089 -1.28432,-0.86028 1.5447,0.0589 z"
             inkscape:transform-center-y="-0.19740077" />
          <path
             inkscape:transform-center-y="-0.19740077"
             d="m 163.76874,492.57184 0.4213,1.4873 1.54469,-0.0589 -1.28432,0.86028 0.53338,1.45088 -1.21505,-0.95562 -1.21505,0.95562 0.53337,-1.45088 -1.28432,-0.86028 1.5447,0.0589 z"
             inkscape:randomized="0"
             inkscape:rounded="0"
             inkscape:flatsided="false"
             sodipodi:arg2="-0.9424778"
             sodipodi:arg1="-1.5707963"
             sodipodi:r2="0.71675545"
             sodipodi:r1="2.067168"
             sodipodi:cy="494.63901"
             sodipodi:cx="163.76874"
             sodipodi:sides="5"
             id="path58"
             style="opacity:1;vector-effect:none;fill:#e2c163;fill-opacity:1;stroke:none;stroke-width:0.03111489;stroke-linecap:butt;stroke-linejoin:miter;stroke-miterlimit:4;stroke-dasharray:none;stroke-dashoffset:0;stroke-opacity:1"
             sodipodi:type="star" />
          <path
             sodipodi:type="star"
             style="opacity:1;vector-effect:none;fill:#e2c163;fill-opacity:1;stroke:none;stroke-width:0.03111489;stroke-linecap:butt;stroke-linejoin:miter;stroke-miterlimit:4;stroke-dasharray:none;stroke-dashoffset:0;stroke-opacity:1"
             id="path60"
             sodipodi:sides="5"
             sodipodi:cx="159.14543"
             sodipodi:cy="500.1185"
             sodipodi:r1="2.067168"
             sodipodi:r2="0.71675545"
             sodipodi:arg1="-1.5707963"
             sodipodi:arg2="-0.9424778"
             inkscape:flatsided="false"
             inkscape:rounded="0"
             inkscape:randomized="0"
             d="m 159.14543,498.05133 0.4213,1.4873 1.5447,-0.0589 -1.28432,0.86028 0.53337,1.45088 -1.21505,-0.95561 -1.21505,0.95561 0.53338,-1.45088 -1.28432,-0.86028 1.54469,0.0589 z"
             inkscape:transform-center-y="-0.19740077" />
        </g>
      </g>
    </g>
  </g>
</svg>
